                                                       
                           H                 hhhhhhhhh 
                           H                 h ----- h 
                           H                 h ----- h 
                           H                 h ----- h 
                           H                 h       h 
                           H                 hhhhhhhhh 
                           H                           
                           H                           
                           H  HHHHHHHHHHHHHHHHHHHHHHHH 
                           H                           
                           H  HHHHHHHHHHHHHHHHHHHHHHHH 
                           H                           
                           H  HHHHHHHHHHHHHHHHHHHHHHHH 
                           H                           
                           H  HHHHHHHHHHHHHHHHHHHHHHHH 
                 gg gg gg  H                           
                           H                           
                                                       
                                                       